Vivado_Projects/lab_5/.Xil/Vivado-21792-Curtis-Laptop/hw_ila_data_1/zip_work/waveform.vcd
$date
        2024-Oct-09 20:57:13
$end
$version
        Vivado v2022.2 (64-bit)
$end
$timescale
        1ps
$end
$scope module dut $end
$var reg 5 " slc3/cpu/cpu_control/state [4:0] $end
$var reg 1 ' run_i_IBUF $end
$var reg 1 ( _TRIGGER $end
$var reg 1 ) _WINDOW $end
$var reg 1 * _GAP $end
$upscope $end
$enddefinitions $end
#0
$dumpvars
b1000 "
1'
0(
1)
0*
$end
#1
b10110 "
#2
b11 "
#3
b100 "
#4
b101 "
#5
b110 "
#6
b111 "
#7
b1000 "
#8
b10110 "
#9
b11 "
#10
b100 "
#11
b101 "
#12
b110 "
#13
b111 "
#14
b1000 "
#15
b10110 "
#16
b11 "
#17
b100 "
#18
b101 "
#19
b110 "
#20
b111 "
#21
b1000 "
#22
b10110 "
#23
b11 "
#24
b100 "
#25
b101 "
#26
b110 "
#27
b111 "
#28
b1000 "
#29
b10110 "
#30
b11 "
#31
b100 "
#32
b101 "
#33
b110 "
#34
b111 "
#35
b1000 "
#36
b10110 "
#37
b11 "
#38
b100 "
#39
b101 "
#40
b110 "
#41
b111 "
#42
b1000 "
#43
b10110 "
#44
b11 "
#45
b100 "
#46
b101 "
#47
b110 "
#48
b111 "
#49
b1000 "
#50
b10110 "
#51
b11 "
#52
b100 "
#53
b101 "
#54
b110 "
#55
b111 "
#56
b1000 "
#57
b10110 "
#58
b11 "
#59
b100 "
#60
b101 "
#61
b110 "
#62
b111 "
#63
b1000 "
#64
b10110 "
#65
b11 "
#66
b100 "
#67
b101 "
#68
b110 "
#69
b111 "
#70
b1000 "
#71
b10110 "
#72
b11 "
#73
b100 "
#74
b101 "
#75
b110 "
#76
b111 "
#77
b1000 "
#78
b10110 "
#79
b11 "
#80
b100 "
#81
b101 "
#82
b110 "
#83
b111 "
#84
b1000 "
#85
b10110 "
#86
b11 "
#87
b100 "
#88
b101 "
#89
b110 "
#90
b111 "
#91
b1000 "
#92
b10110 "
#93
b11 "
#94
b100 "
#95
b101 "
#96
b110 "
#97
b111 "
#98
b1000 "
#99
b10110 "
#100
b11 "
#101
b100 "
#102
b101 "
#103
b110 "
#104
b111 "
#105
b1000 "
#106
b10110 "
#107
b11 "
#108
b100 "
#109
b101 "
#110
b110 "
#111
b111 "
#112
b1000 "
#113
b10110 "
#114
b11 "
#115
b100 "
#116
b101 "
#117
b110 "
#118
b111 "
#119
b1000 "
#120
b10110 "
#121
b11 "
#122
b100 "
#123
b101 "
#124
b110 "
#125
b111 "
#126
b1000 "
#127
b10110 "
#128
b11 "
#129
b100 "
#130
b101 "
#131
b110 "
#132
b111 "
#133
b1000 "
#134
b10110 "
#135
b11 "
#136
b100 "
#137
b101 "
#138
b110 "
#139
b111 "
#140
b1000 "
#141
b10110 "
#142
b11 "
#143
b100 "
#144
b101 "
#145
b110 "
#146
b111 "
#147
b1000 "
#148
b10110 "
#149
b11 "
#150
b100 "
#151
b101 "
#152
b110 "
#153
b111 "
#154
b1000 "
#155
b10110 "
#156
b11 "
#157
b100 "
#158
b101 "
#159
b110 "
#160
b111 "
#161
b1000 "
#162
b10110 "
#163
b11 "
#164
b100 "
#165
b101 "
#166
b110 "
#167
b111 "
#168
b1000 "
#169
b10110 "
#170
b11 "
#171
b100 "
#172
b101 "
#173
b110 "
#174
b111 "
#175
b1000 "
#176
b10110 "
#177
b11 "
#178
b100 "
#179
b101 "
#180
b110 "
#181
b111 "
#182
b1000 "
#183
b10110 "
#184
b11 "
#185
b100 "
#186
b101 "
#187
b110 "
#188
b111 "
#189
b1000 "
#190
b10110 "
#191
b11 "
#192
b100 "
#193
b101 "
#194
b110 "
#195
b111 "
#196
b1000 "
#197
b10110 "
#198
b11 "
#199
b100 "
#200
b101 "
#201
b110 "
#202
b111 "
#203
b1000 "
#204
b10110 "
#205
b11 "
#206
b100 "
#207
b101 "
#208
b110 "
#209
b111 "
#210
b1000 "
#211
b10110 "
#212
b11 "
#213
b100 "
#214
b101 "
#215
b110 "
#216
b111 "
#217
b1000 "
#218
b10110 "
#219
b11 "
#220
b100 "
#221
b101 "
#222
b110 "
#223
b111 "
#224
b1000 "
#225
b10110 "
#226
b11 "
#227
b100 "
#228
b101 "
#229
b110 "
#230
b111 "
#231
b1000 "
#232
b10110 "
#233
b11 "
#234
b100 "
#235
b101 "
#236
b110 "
#237
b111 "
#238
b1000 "
#239
b10110 "
#240
b11 "
#241
b100 "
#242
b101 "
#243
b110 "
#244
b111 "
#245
b1000 "
#246
b10110 "
#247
b11 "
#248
b100 "
#249
b101 "
#250
b110 "
#251
b111 "
#252
b1000 "
#253
b10110 "
#254
b11 "
#255
b100 "
#256
b101 "
#257
b110 "
#258
b111 "
#259
b1000 "
#260
b10110 "
#261
b11 "
#262
b100 "
#263
b101 "
#264
b110 "
#265
b111 "
#266
b1000 "
#267
b10110 "
#268
b11 "
#269
b100 "
#270
b101 "
#271
b110 "
#272
b111 "
#273
b1000 "
#274
b10110 "
#275
b11 "
#276
b100 "
#277
b101 "
#278
b110 "
#279
b111 "
#280
b1000 "
#281
b10110 "
#282
b11 "
#283
b100 "
#284
b101 "
#285
b110 "
#286
b111 "
#287
b1000 "
#288
b10110 "
#289
b11 "
#290
b100 "
#291
b101 "
#292
b110 "
#293
b111 "
#294
b1000 "
#295
b10110 "
#296
b11 "
#297
b100 "
#298
b101 "
#299
b110 "
#300
b111 "
#301
b1000 "
#302
b10110 "
#303
b11 "
#304
b100 "
#305
b101 "
#306
b110 "
#307
b111 "
#308
b1000 "
#309
b10110 "
#310
b11 "
#311
b100 "
#312
b101 "
#313
b110 "
#314
b111 "
#315
b1000 "
#316
b10110 "
#317
b11 "
#318
b100 "
#319
b101 "
#320
b110 "
#321
b111 "
#322
b1000 "
#323
b10110 "
#324
b11 "
#325
b100 "
#326
b101 "
#327
b110 "
#328
b111 "
#329
b1000 "
#330
b10110 "
#331
b11 "
#332
b100 "
#333
b101 "
#334
b110 "
#335
b111 "
#336
b1000 "
#337
b10110 "
#338
b11 "
#339
b100 "
#340
b101 "
#341
b110 "
#342
b111 "
#343
b1000 "
#344
b10110 "
#345
b11 "
#346
b100 "
#347
b101 "
#348
b110 "
#349
b111 "
#350
b1000 "
#351
b10110 "
#352
b11 "
#353
b100 "
#354
b101 "
#355
b110 "
#356
b111 "
#357
b1000 "
#358
b10110 "
#359
b11 "
#360
b100 "
#361
b101 "
#362
b110 "
#363
b111 "
#364
b1000 "
#365
b10110 "
#366
b11 "
#367
b100 "
#368
b101 "
#369
b110 "
#370
b111 "
#371
b1000 "
#372
b10110 "
#373
b11 "
#374
b100 "
#375
b101 "
#376
b110 "
#377
b111 "
#378
b1000 "
#379
b10110 "
#380
b11 "
#381
b100 "
#382
b101 "
#383
b110 "
#384
b111 "
#385
b1000 "
#386
b10110 "
#387
b11 "
#388
b100 "
#389
b101 "
#390
b110 "
#391
b111 "
#392
b1000 "
#393
b10110 "
#394
b11 "
#395
b100 "
#396
b101 "
#397
b110 "
#398
b111 "
#399
b1000 "
#400
b10110 "
#401
b11 "
#402
b100 "
#403
b101 "
#404
b110 "
#405
b111 "
#406
b1000 "
#407
b10110 "
#408
b11 "
#409
b100 "
#410
b101 "
#411
b110 "
#412
b111 "
#413
b1000 "
#414
b10110 "
#415
b11 "
#416
b100 "
#417
b101 "
#418
b110 "
#419
b111 "
#420
b1000 "
#421
b10110 "
#422
b11 "
#423
b100 "
#424
b101 "
#425
b110 "
#426
b111 "
#427
b1000 "
#428
b10110 "
#429
b11 "
#430
b100 "
#431
b101 "
#432
b110 "
#433
b111 "
#434
b1000 "
#435
b10110 "
#436
b11 "
#437
b100 "
#438
b101 "
#439
b110 "
#440
b111 "
#441
b1000 "
#442
b10110 "
#443
b11 "
#444
b100 "
#445
b101 "
#446
b110 "
#447
b111 "
#448
b1000 "
#449
b10110 "
#450
b11 "
#451
b100 "
#452
b101 "
#453
b110 "
#454
b111 "
#455
b1000 "
#456
b10110 "
#457
b11 "
#458
b100 "
#459
b101 "
#460
b110 "
#461
b111 "
#462
b1000 "
#463
b10110 "
#464
b11 "
#465
b100 "
#466
b101 "
#467
b110 "
#468
b111 "
#469
b1000 "
#470
b10110 "
#471
b11 "
#472
b100 "
#473
b101 "
#474
b110 "
#475
b111 "
#476
b1000 "
#477
b10110 "
#478
b11 "
#479
b100 "
#480
b101 "
#481
b110 "
#482
b111 "
#483
b1000 "
#484
b10110 "
#485
b11 "
#486
b100 "
#487
b101 "
#488
b110 "
#489
b111 "
#490
b1000 "
#491
b10110 "
#492
b11 "
#493
b100 "
#494
b101 "
#495
b110 "
#496
b111 "
#497
b1000 "
#498
b10110 "
#499
b11 "
#500
b100 "
#501
b101 "
#502
b110 "
#503
b111 "
#504
b1000 "
#505
b10110 "
#506
b11 "
#507
b100 "
#508
b101 "
#509
b110 "
#510
b111 "
#511
b1000 "
#512
b10110 "
0'
1(
#513
b11 "
#514
b100 "
#515
b101 "
#516
b110 "
#517
b111 "
#518
b1000 "
#519
b10110 "
#520
b11 "
#521
b100 "
#522
b101 "
#523
b110 "
#524
b111 "
#525
b1000 "
#526
b10110 "
#527
b11 "
#528
b100 "
#529
b101 "
#530
b110 "
#531
b111 "
#532
b1000 "
#533
b10110 "
#534
b11 "
#535
b100 "
#536
b101 "
#537
b110 "
#538
b111 "
#539
b1000 "
#540
b10110 "
#541
b11 "
#542
b100 "
#543
b101 "
#544
b110 "
#545
b111 "
#546
b1000 "
#547
b10110 "
#548
b11 "
#549
b100 "
#550
b101 "
#551
b110 "
#552
b111 "
#553
b1000 "
#554
b10110 "
#555
b11 "
#556
b100 "
#557
b101 "
#558
b110 "
#559
b111 "
#560
b1000 "
#561
b10110 "
#562
b11 "
#563
b100 "
#564
b101 "
#565
b110 "
#566
b111 "
#567
b1000 "
#568
b10110 "
#569
b11 "
#570
b100 "
#571
b101 "
#572
b110 "
#573
b111 "
#574
b1000 "
#575
b10110 "
#576
b11 "
#577
b100 "
#578
b101 "
#579
b110 "
#580
b111 "
#581
b1000 "
#582
b10110 "
#583
b11 "
#584
b100 "
#585
b101 "
#586
b110 "
#587
b111 "
#588
b1000 "
#589
b10110 "
#590
b11 "
#591
b100 "
#592
b101 "
#593
b110 "
#594
b111 "
#595
b1000 "
#596
b10110 "
#597
b11 "
#598
b100 "
#599
b101 "
#600
b110 "
#601
b111 "
#602
b1000 "
#603
b10110 "
#604
b11 "
#605
b100 "
#606
b101 "
#607
b110 "
#608
b111 "
#609
b1000 "
#610
b10110 "
#611
b11 "
#612
b100 "
#613
b101 "
#614
b110 "
#615
b111 "
#616
b1000 "
#617
b10110 "
#618
b11 "
#619
b100 "
#620
b101 "
#621
b110 "
#622
b111 "
#623
b1000 "
#624
b10110 "
#625
b11 "
#626
b100 "
#627
b101 "
#628
b110 "
#629
b111 "
#630
b1000 "
#631
b10110 "
#632
b11 "
#633
b100 "
#634
b101 "
#635
b110 "
#636
b111 "
#637
b1000 "
#638
b10110 "
#639
b11 "
#640
b100 "
#641
b101 "
#642
b110 "
#643
b111 "
#644
b1000 "
#645
b10110 "
#646
b11 "
#647
b100 "
#648
b101 "
#649
b110 "
#650
b111 "
#651
b1000 "
#652
b10110 "
#653
b11 "
#654
b100 "
#655
b101 "
#656
b110 "
#657
b111 "
#658
b1000 "
#659
b10110 "
#660
b11 "
#661
b100 "
#662
b101 "
#663
b110 "
#664
b111 "
#665
b1000 "
#666
b10110 "
#667
b11 "
#668
b100 "
#669
b101 "
#670
b110 "
#671
b111 "
#672
b1000 "
#673
b10110 "
#674
b11 "
#675
b100 "
#676
b101 "
#677
b110 "
#678
b111 "
#679
b1000 "
#680
b10110 "
#681
b11 "
#682
b100 "
#683
b101 "
#684
b110 "
#685
b111 "
#686
b1000 "
#687
b10110 "
#688
b11 "
#689
b100 "
#690
b101 "
#691
b110 "
#692
b111 "
#693
b1000 "
#694
b10110 "
#695
b11 "
#696
b100 "
#697
b101 "
#698
b110 "
#699
b111 "
#700
b1000 "
#701
b10110 "
#702
b11 "
#703
b100 "
#704
b101 "
#705
b110 "
#706
b111 "
#707
b1000 "
#708
b10110 "
#709
b11 "
#710
b100 "
#711
b101 "
#712
b110 "
#713
b111 "
#714
b1000 "
#715
b10110 "
#716
b11 "
#717
b100 "
#718
b101 "
#719
b110 "
#720
b111 "
#721
b1000 "
#722
b10110 "
#723
b11 "
#724
b100 "
#725
b101 "
#726
b110 "
#727
b111 "
#728
b1000 "
#729
b10110 "
#730
b11 "
#731
b100 "
#732
b101 "
#733
b110 "
#734
b111 "
#735
b1000 "
#736
b10110 "
#737
b11 "
#738
b100 "
#739
b101 "
#740
b110 "
#741
b111 "
#742
b1000 "
#743
b10110 "
#744
b11 "
#745
b100 "
#746
b101 "
#747
b110 "
#748
b111 "
#749
b1000 "
#750
b10110 "
#751
b11 "
#752
b100 "
#753
b101 "
#754
b110 "
#755
b111 "
#756
b1000 "
#757
b10110 "
#758
b11 "
#759
b100 "
#760
b101 "
#761
b110 "
#762
b111 "
#763
b1000 "
#764
b10110 "
#765
b11 "
#766
b100 "
#767
b101 "
#768
b110 "
#769
b111 "
#770
b1000 "
#771
b10110 "
#772
b11 "
#773
b100 "
#774
b101 "
#775
b110 "
#776
b111 "
#777
b1000 "
#778
b10110 "
#779
b11 "
#780
b100 "
#781
b101 "
#782
b110 "
#783
b111 "
#784
b1000 "
#785
b10110 "
#786
b11 "
#787
b100 "
#788
b101 "
#789
b110 "
#790
b111 "
#791
b1000 "
#792
b10110 "
#793
b11 "
#794
b100 "
#795
b101 "
#796
b110 "
#797
b111 "
#798
b1000 "
#799
b10110 "
#800
b11 "
#801
b100 "
#802
b101 "
#803
b110 "
#804
b111 "
#805
b1000 "
#806
b10110 "
#807
b11 "
#808
b100 "
#809
b101 "
#810
b110 "
#811
b111 "
#812
b1000 "
#813
b10110 "
#814
b11 "
#815
b100 "
#816
b101 "
#817
b110 "
#818
b111 "
#819
b1000 "
#820
b10110 "
#821
b11 "
#822
b100 "
#823
b101 "
#824
b110 "
#825
b111 "
#826
b1000 "
#827
b10110 "
#828
b11 "
#829
b100 "
#830
b101 "
#831
b110 "
#832
b111 "
#833
b1000 "
#834
b10110 "
#835
b11 "
#836
b100 "
#837
b101 "
#838
b110 "
#839
b111 "
#840
b1000 "
#841
b10110 "
#842
b11 "
#843
b100 "
#844
b101 "
#845
b110 "
#846
b111 "
#847
b1000 "
#848
b10110 "
#849
b11 "
#850
b100 "
#851
b101 "
#852
b110 "
#853
b111 "
#854
b1000 "
#855
b10110 "
#856
b11 "
#857
b100 "
#858
b101 "
#859
b110 "
#860
b111 "
#861
b1000 "
#862
b10110 "
#863
b11 "
#864
b100 "
#865
b101 "
#866
b110 "
#867
b111 "
#868
b1000 "
#869
b1100 "
#870
b1101 "
#871
b1110 "
#872
b1111 "
#873
b10000 "
#874
b11 "
#875
b100 "
#876
b101 "
#877
b110 "
#878
b111 "
#879
b1000 "
#880
b11000 "
#881
b11 "
#882
b100 "
#883
b101 "
#884
b110 "
#885
b111 "
#886
b1000 "
#887
b1011 "
#888
b11 "
#889
b100 "
#890
b101 "
#891
b110 "
#892
b111 "
#893
b1000 "
#894
b1001 "
#895
b11 "
#896
b100 "
#897
b101 "
#898
b110 "
#899
b111 "
#900
b1000 "
#901
b1001 "
#902
b11 "
#903
b100 "
#904
b101 "
#905
b110 "
#906
b111 "
#907
b1000 "
#908
b1001 "
#909
b11 "
#910
b100 "
#911
b101 "
#912
b110 "
#913
b111 "
#914
b1000 "
#915
b1001 "
#916
b11 "
#917
b100 "
#918
b101 "
#919
b110 "
#920
b111 "
#921
b1000 "
#922
b10110 "
#923
b10111 "
#924
b11 "
#925
b100 "
#926
b101 "
#927
b110 "
#928
b111 "
#929
b1000 "
#930
b10110 "
#931
b11 "
#932
b100 "
#933
b101 "
#934
b110 "
#935
b111 "
#936
b1000 "
#937
b10110 "
#938
b11 "
#939
b100 "
#940
b101 "
#941
b110 "
#942
b111 "
#943
b1000 "
#944
b10110 "
#945
b11 "
#946
b100 "
#947
b101 "
#948
b110 "
#949
b111 "
#950
b1000 "
#951
b10110 "
#952
b11 "
#953
b100 "
#954
b101 "
#955
b110 "
#956
b111 "
#957
b1000 "
#958
b10110 "
#959
b11 "
#960
b100 "
#961
b101 "
#962
b110 "
#963
b111 "
#964
b1000 "
#965
b10110 "
#966
b11 "
#967
b100 "
#968
b101 "
#969
b110 "
#970
b111 "
#971
b1000 "
#972
b10110 "
#973
b11 "
#974
b100 "
#975
b101 "
#976
b110 "
#977
b111 "
#978
b1000 "
#979
b10110 "
#980
b11 "
#981
b100 "
#982
b101 "
#983
b110 "
#984
b111 "
#985
b1000 "
#986
b10110 "
#987
b11 "
#988
b100 "
#989
b101 "
#990
b110 "
#991
b111 "
#992
b1000 "
#993
b10110 "
#994
b11 "
#995
b100 "
#996
b101 "
#997
b110 "
#998
b111 "
#999
b1000 "
#1000
b10110 "
#1001
b11 "
#1002
b100 "
#1003
b101 "
#1004
b110 "
#1005
b111 "
#1006
b1000 "
#1007
b10110 "
#1008
b11 "
#1009
b100 "
#1010
b101 "
#1011
b110 "
#1012
b111 "
#1013
b1000 "
#1014
b10110 "
#1015
b11 "
#1016
b100 "
#1017
b101 "
#1018
b110 "
#1019
b111 "
#1020
b1000 "
#1021
b10110 "
#1022
b11 "
#1023
b100 "
